// Jest Snapshot v1, https://goo.gl/fbAQLP

exports[`task-decision: can edit a decision 1`] = `
Object {
  "content": Array [
    Object {
      "attrs": Object {
        "localId": "abc-123",
      },
      "content": Array [
        Object {
          "attrs": Object {
            "localId": "abc-123",
            "state": "DECIDED",
          },
          "content": Array [
            Object {
              "text": "a preloaded decision has been edited",
              "type": "text",
            },
          ],
          "type": "decisionItem",
        },
      ],
      "type": "decisionList",
    },
  ],
  "type": "doc",
}
`;

exports[`task-decision: can paste plain text into a decision 1`] = `
Object {
  "content": Array [
    Object {
      "attrs": Object {
        "localId": "abc-123",
      },
      "content": Array [
        Object {
          "attrs": Object {
            "localId": "abc-123",
            "state": "DECIDED",
          },
          "content": Array [
            Object {
              "text": "<p>this is a link <a href=\\"http://www.google.com\\">www.google.com</a></p><p>more elements with some <strong>format</strong></p><p>some addition<em> formatting</em></p>",
              "type": "text",
            },
          ],
          "type": "decisionItem",
        },
      ],
      "type": "decisionList",
    },
  ],
  "type": "doc",
}
`;

exports[`task-decision: can paste rich text into a decision 1`] = `
Object {
  "content": Array [
    Object {
      "attrs": Object {
        "localId": "abc-123",
      },
      "content": Array [
        Object {
          "attrs": Object {
            "localId": "abc-123",
            "state": "DECIDED",
          },
          "content": Array [
            Object {
              "text": "this is a link ",
              "type": "text",
            },
            Object {
              "marks": Array [
                Object {
                  "attrs": Object {
                    "__confluenceMetadata": null,
                    "href": "http://www.google.com",
                  },
                  "type": "link",
                },
              ],
              "text": "www.google.com",
              "type": "text",
            },
            Object {
              "type": "hardBreak",
            },
            Object {
              "text": "more elements with some ",
              "type": "text",
            },
            Object {
              "marks": Array [
                Object {
                  "type": "strong",
                },
              ],
              "text": "format",
              "type": "text",
            },
            Object {
              "type": "hardBreak",
            },
            Object {
              "text": "some addition",
              "type": "text",
            },
            Object {
              "marks": Array [
                Object {
                  "type": "em",
                },
              ],
              "text": " formatting",
              "type": "text",
            },
          ],
          "type": "decisionItem",
        },
      ],
      "type": "decisionList",
    },
  ],
  "type": "doc",
}
`;
